<svg width="289" height="60" viewBox="0 0 289 60" fill="none" xmlns="http://www.w3.org/2000/svg">
<rect x="0.5" y="0.5" width="288" height="59" rx="29.5" fill="#1B1013" stroke="white"/>
<path d="M26.742 35H25.0194V25.0469H26.742V35ZM37.6035 35H35.874L31.4375 27.9385V35H29.708V25.0469H31.4375L35.8877 32.1357V25.0469H37.6035V35ZM46.2228 30.7822H42.217V35H40.4875V25.0469H46.8107V26.4414H42.217V29.4014H46.2228V30.7822ZM56.9681 30.2832C56.9681 31.2585 56.7995 32.1152 56.4622 32.8535C56.125 33.5872 55.6419 34.1523 55.013 34.5488C54.3887 34.9408 53.6686 35.1367 52.8529 35.1367C52.0462 35.1367 51.3262 34.9408 50.6927 34.5488C50.0638 34.1523 49.5762 33.5895 49.2298 32.8604C48.888 32.1312 48.7148 31.2904 48.7103 30.3379V29.7773C48.7103 28.8066 48.8812 27.9499 49.223 27.207C49.5693 26.4642 50.0547 25.8968 50.679 25.5049C51.3079 25.1084 52.028 24.9102 52.8392 24.9102C53.6504 24.9102 54.3682 25.1061 54.9925 25.498C55.6214 25.8854 56.1068 26.446 56.4486 27.1797C56.7904 27.9089 56.9635 28.7588 56.9681 29.7295V30.2832ZM55.2386 29.7637C55.2386 28.6608 55.029 27.8154 54.6097 27.2275C54.195 26.6396 53.6048 26.3457 52.8392 26.3457C52.0918 26.3457 51.5062 26.6396 51.0823 27.2275C50.6631 27.8109 50.4489 28.638 50.4398 29.709V30.2832C50.4398 31.377 50.6517 32.2223 51.0755 32.8193C51.5039 33.4163 52.0963 33.7148 52.8529 33.7148C53.6185 33.7148 54.2064 33.4232 54.6165 32.8398C55.0312 32.2565 55.2386 31.4043 55.2386 30.2832V29.7637ZM63.188 31.165H61.2602V35H59.5307V25.0469H63.0307C64.1792 25.0469 65.0656 25.3044 65.6899 25.8193C66.3143 26.3343 66.6264 27.0794 66.6264 28.0547C66.6264 28.7201 66.4647 29.2783 66.1411 29.7295C65.8221 30.1761 65.3755 30.5202 64.8013 30.7617L67.0366 34.9111V35H65.1841L63.188 31.165ZM61.2602 29.7773H63.0376C63.6209 29.7773 64.0766 29.6315 64.4048 29.3398C64.7329 29.0436 64.897 28.6403 64.897 28.1299C64.897 27.5967 64.7443 27.1842 64.4389 26.8926C64.1382 26.6009 63.687 26.4505 63.0854 26.4414H61.2602V29.7773ZM71.3493 25.0469L74.2204 32.6758L77.0846 25.0469H79.32V35H77.5973V31.7188L77.7682 27.3301L74.8288 35H73.5914L70.6588 27.3369L70.8297 31.7188V35H69.1071V25.0469H71.3493ZM87.9051 32.6826H84.0496L83.243 35H81.4451L85.2049 25.0469H86.7566L90.5232 35H88.7186L87.9051 32.6826ZM84.535 31.2881H87.4197L85.9773 27.1592L84.535 31.2881ZM98.8691 26.4414H95.7656V35H94.0498V26.4414H90.9736V25.0469H98.8691V26.4414ZM102.847 35H101.124V25.0469H102.847V35ZM113.756 30.2832C113.756 31.2585 113.588 32.1152 113.25 32.8535C112.913 33.5872 112.43 34.1523 111.801 34.5488C111.177 34.9408 110.457 35.1367 109.641 35.1367C108.834 35.1367 108.114 34.9408 107.481 34.5488C106.852 34.1523 106.364 33.5895 106.018 32.8604C105.676 32.1312 105.503 31.2904 105.498 30.3379V29.7773C105.498 28.8066 105.669 27.9499 106.011 27.207C106.357 26.4642 106.843 25.8968 107.467 25.5049C108.096 25.1084 108.816 24.9102 109.627 24.9102C110.438 24.9102 111.156 25.1061 111.781 25.498C112.409 25.8854 112.895 26.446 113.237 27.1797C113.578 27.9089 113.752 28.7588 113.756 29.7295V30.2832ZM112.027 29.7637C112.027 28.6608 111.817 27.8154 111.398 27.2275C110.983 26.6396 110.393 26.3457 109.627 26.3457C108.88 26.3457 108.294 26.6396 107.87 27.2275C107.451 27.8109 107.237 28.638 107.228 29.709V30.2832C107.228 31.377 107.44 32.2223 107.864 32.8193C108.292 33.4163 108.884 33.7148 109.641 33.7148C110.407 33.7148 110.994 33.4232 111.405 32.8398C111.819 32.2565 112.027 31.4043 112.027 30.2832V29.7637ZM124.214 35H122.485L118.048 27.9385V35H116.319V25.0469H118.048L122.498 32.1357V25.0469H124.214V35ZM132.3 32.4365C132.3 31.999 132.145 31.6618 131.836 31.4248C131.53 31.1878 130.976 30.9486 130.174 30.707C129.372 30.4655 128.734 30.1966 128.26 29.9004C127.353 29.3307 126.9 28.5879 126.9 27.6719C126.9 26.8698 127.226 26.209 127.878 25.6895C128.534 25.1699 129.384 24.9102 130.427 24.9102C131.12 24.9102 131.738 25.0378 132.28 25.293C132.822 25.5482 133.248 25.9128 133.558 26.3867C133.868 26.8561 134.023 27.3779 134.023 27.9521H132.3C132.3 27.4326 132.136 27.027 131.808 26.7354C131.485 26.4391 131.02 26.291 130.414 26.291C129.849 26.291 129.409 26.4118 129.094 26.6533C128.784 26.8949 128.629 27.2321 128.629 27.665C128.629 28.0296 128.798 28.335 129.135 28.5811C129.473 28.8226 130.029 29.0596 130.803 29.292C131.578 29.5199 132.2 29.7819 132.67 30.0781C133.139 30.3698 133.483 30.707 133.702 31.0898C133.921 31.4681 134.03 31.9124 134.03 32.4229C134.03 33.2523 133.711 33.9131 133.073 34.4053C132.439 34.8929 131.578 35.1367 130.489 35.1367C129.769 35.1367 129.106 35.0046 128.5 34.7402C127.898 34.4714 127.429 34.1022 127.091 33.6328C126.759 33.1634 126.592 32.6165 126.592 31.9922H128.322C128.322 32.5573 128.509 32.9948 128.882 33.3047C129.256 33.6146 129.792 33.7695 130.489 33.7695C131.09 33.7695 131.542 33.6488 131.842 33.4072C132.148 33.1611 132.3 32.8376 132.3 32.4365ZM145.916 32.4365C145.916 31.999 145.761 31.6618 145.451 31.4248C145.146 31.1878 144.592 30.9486 143.79 30.707C142.988 30.4655 142.35 30.1966 141.876 29.9004C140.969 29.3307 140.516 28.5879 140.516 27.6719C140.516 26.8698 140.841 26.209 141.493 25.6895C142.149 25.1699 142.999 24.9102 144.043 24.9102C144.736 24.9102 145.353 25.0378 145.895 25.293C146.438 25.5482 146.864 25.9128 147.174 26.3867C147.484 26.8561 147.639 27.3779 147.639 27.9521H145.916C145.916 27.4326 145.752 27.027 145.424 26.7354C145.1 26.4391 144.635 26.291 144.029 26.291C143.464 26.291 143.024 26.4118 142.71 26.6533C142.4 26.8949 142.245 27.2321 142.245 27.665C142.245 28.0296 142.414 28.335 142.751 28.5811C143.088 28.8226 143.644 29.0596 144.419 29.292C145.194 29.5199 145.816 29.7819 146.285 30.0781C146.754 30.3698 147.099 30.707 147.317 31.0898C147.536 31.4681 147.645 31.9124 147.645 32.4229C147.645 33.2523 147.326 33.9131 146.688 34.4053C146.055 34.8929 145.194 35.1367 144.104 35.1367C143.384 35.1367 142.721 35.0046 142.115 34.7402C141.514 34.4714 141.044 34.1022 140.707 33.6328C140.374 33.1634 140.208 32.6165 140.208 31.9922H141.937C141.937 32.5573 142.124 32.9948 142.498 33.3047C142.872 33.6146 143.407 33.7695 144.104 33.7695C144.706 33.7695 145.157 33.6488 145.458 33.4072C145.763 33.1611 145.916 32.8376 145.916 32.4365ZM157.283 25.0469V31.6982C157.283 32.7555 156.944 33.5941 156.265 34.2139C155.59 34.8291 154.69 35.1367 153.565 35.1367C152.425 35.1367 151.521 34.8337 150.851 34.2275C150.181 33.6169 149.846 32.7715 149.846 31.6914V25.0469H151.568V31.7051C151.568 32.3704 151.737 32.8786 152.074 33.2295C152.412 33.5804 152.908 33.7559 153.565 33.7559C154.895 33.7559 155.561 33.054 155.561 31.6504V25.0469H157.283ZM163.633 31.165H161.705V35H159.976V25.0469H163.476C164.624 25.0469 165.511 25.3044 166.135 25.8193C166.759 26.3343 167.072 27.0794 167.072 28.0547C167.072 28.7201 166.91 29.2783 166.586 29.7295C166.267 30.1761 165.821 30.5202 165.246 30.7617L167.482 34.9111V35H165.629L163.633 31.165ZM161.705 29.7773H163.483C164.066 29.7773 164.522 29.6315 164.85 29.3398C165.178 29.0436 165.342 28.6403 165.342 28.1299C165.342 27.5967 165.189 27.1842 164.884 26.8926C164.583 26.6009 164.132 26.4505 163.531 26.4414H161.705V29.7773ZM175.608 33.6191H180.127V35H173.878V25.0469H175.608V33.6191ZM181.137 25.3545L180.96 28.0273H179.873V24.5H181.137V25.3545ZM189.347 30.5566H185.259V33.6191H190.037V35H183.529V25.0469H189.989V26.4414H185.259V29.1895H189.347V30.5566ZM187.289 22.333H189.183L187.289 24.4043H185.956L187.289 22.333ZM195.792 32.833L198.321 25.0469H200.222L196.64 35H194.965L191.397 25.0469H193.29L195.792 32.833ZM208.007 30.5566H203.919V33.6191H208.697V35H202.19V25.0469H208.65V26.4414H203.919V29.1895H208.007V30.5566ZM205.949 22.333H207.843L205.949 24.4043H204.616L205.949 22.333ZM218.841 35H217.112L212.675 27.9385V35H210.946V25.0469H212.675L217.125 32.1357V25.0469H218.841V35ZM227.542 30.5566H223.455V33.6191H228.233V35H221.725V25.0469H228.185V26.4414H223.455V29.1895H227.542V30.5566ZM232.723 25.0469L235.594 32.6758L238.459 25.0469H240.694V35H238.971V31.7188L239.142 27.3301L236.203 35H234.966L232.033 27.3369L232.204 31.7188V35H230.481V25.0469H232.723ZM249.402 30.5566H245.314V33.6191H250.093V35H243.585V25.0469H250.045V26.4414H245.314V29.1895H249.402V30.5566ZM260.236 35H258.507L254.07 27.9385V35H252.341V25.0469H254.07L258.521 32.1357V25.0469H260.236V35ZM270.107 26.4414H267.003V35H265.287V26.4414H262.211V25.0469H270.107V26.4414Z" fill="white"/>
</svg>
